<?xml version="1.0" encoding="UTF-8" standalone="no"?>
<svg width="186px" height="600px" viewBox="0 0 186 600" version="1.1" xmlns="http://www.w3.org/2000/svg" xmlns:xlink="http://www.w3.org/1999/xlink" xmlns:sketch="http://www.bohemiancoding.com/sketch/ns">
    <!-- Generator: Sketch 3.5 (25232) - http://www.bohemiancoding.com/sketch -->
    <title>Group 2</title>
    <desc>Created with Sketch.</desc>
    <defs></defs>
    <g id="Page-1" stroke="none" stroke-width="1" fill="none" fill-rule="evenodd" sketch:type="MSPage">
        <g id="Group-2" sketch:type="MSLayerGroup" fill="#192630">
            <path d="M186,0.0612015244 C185.619189,0.570636291 185.247282,1.10422283 184.885122,1.6619629 L6.27383926,276.730468 C-2.08894907,289.609496 -2.09361011,310.509342 6.27383926,323.395548 L184.885122,598.464054 C185.247263,599.021766 185.619171,599.55534 186,600.064775 L186,0.0612015244 Z" id="Rectangle-1" sketch:type="MSShapeGroup"></path>
        </g>
    </g>
</svg>