<?xml version="1.0" encoding="UTF-8" standalone="no"?>
<svg width="202px" height="202px" viewBox="0 0 202 202" version="1.1" xmlns="http://www.w3.org/2000/svg" xmlns:xlink="http://www.w3.org/1999/xlink" xmlns:sketch="http://www.bohemiancoding.com/sketch/ns">
    <!-- Generator: Sketch 3.4.2 (15855) - http://www.bohemiancoding.com/sketch -->
    <title>Oval 3</title>
    <desc>Created with Sketch.</desc>
    <defs></defs>
    <g id="Page-1" stroke="none" stroke-width="1" fill="none" fill-rule="evenodd" sketch:type="MSPage">
        <path d="M101,202 C156.78076,202 202,156.78076 202,101 C202,45.2192403 156.78076,0 101,0 C45.2192403,0 0,45.2192403 0,101 C0,156.78076 45.2192403,202 101,202 Z M101,194 C152.362482,194 194,152.362482 194,101 C194,49.6375183 152.362482,8 101,8 C49.6375183,8 8,49.6375183 8,101 C8,152.362482 49.6375183,194 101,194 Z" id="Oval-3" fill="#FFD56C" sketch:type="MSShapeGroup"></path>
    </g>
</svg>